<svg width="72" height="72" viewBox="0 0 72 72" fill="none" xmlns="http://www.w3.org/2000/svg">
<path fill-rule="evenodd" clip-rule="evenodd" d="M64.9963 28.0265H70.0605V25.2956H64.9963V28.0265ZM67.7252 38.3372V39.7026H60.3239V38.3372C60.3239 36.2967 61.9842 34.6346 64.0246 34.6346C66.065 34.6346 67.7252 36.2967 67.7252 38.3372ZM70.0604 44.3711H67.3315H4.67238H1.93955V41.6422H70.0604V44.3711ZM65.392 65.392H62.6591V60.5217C62.6591 56.7668 59.6063 53.7159 55.8532 53.7159C52.0983 53.7159 49.0435 56.7668 49.0435 60.5217V65.392H43.9774V57.0189C43.9774 52.6219 40.3989 49.0435 36 49.0435C31.603 49.0435 28.0265 52.6219 28.0265 57.0189V65.392H22.9604V60.5217C22.9604 56.7668 19.9037 53.7159 16.1506 53.7159C12.3957 53.7159 9.34282 56.7668 9.34282 60.5217V65.392H6.61193V46.3106H65.392V65.392ZM60.7196 65.392H50.983V60.5217C50.983 57.8393 53.167 55.6554 55.8532 55.6554C58.5356 55.6554 60.7196 57.8393 60.7196 60.5217V65.392ZM42.0378 65.392H29.9661V57.0189C29.9661 53.6906 32.6717 50.983 36 50.983C39.3283 50.983 42.0378 53.6906 42.0378 57.0189V65.392ZM21.0209 65.392H11.2824V60.5217C11.2824 57.8393 13.4663 55.6554 16.1506 55.6554C18.835 55.6554 21.0209 57.8393 21.0209 60.5217V65.392ZM1.93955 70.0604H70.0604V67.3296H1.93955V70.0604ZM4.27477 38.3372C4.27477 36.2967 5.93696 34.6346 7.97737 34.6346C10.0158 34.6346 11.678 36.2967 11.678 38.3372V39.7026H4.27477V38.3372ZM42.0378 39.7026H29.9661V33.6648C29.9661 30.3385 32.6717 27.6308 36 27.6308C39.3283 27.6308 42.0378 30.3385 42.0378 33.6648V39.7026ZM18.288 20.6252H53.7139V39.7026H43.9774V33.6648C43.9774 29.2698 40.3989 25.6913 36 25.6913C31.603 25.6913 28.0265 29.2698 28.0265 33.6648V39.7026H18.288V20.6252ZM13.6176 18.6856V15.9528H58.3844V18.6856H55.6535H16.3485H13.6176ZM33.6667 1.93955H38.3352C45.1993 1.93955 50.8279 7.27331 51.3302 14.0133H20.6737C21.1721 7.27331 26.8027 1.93955 33.6667 1.93955ZM1.93955 28.0246H7.00566V25.2937H1.93955V28.0246ZM72 29.9661V23.3541H63.0548V24.3239V29.9661V32.7959C60.4073 33.2555 58.3844 35.5578 58.3844 38.3372V39.7026H55.6535V20.6252H60.3239V14.0133H53.2698C52.7635 6.20656 46.2699 0 38.3352 0H33.6667C25.732 0 19.2365 6.20656 18.7341 14.0133H11.678V20.6252H16.3485V39.7026H13.6176V38.3372C13.6176 35.5578 11.5946 33.2555 8.94715 32.7959V29.9661V24.3239V23.3541H0V29.9661H7.0076V32.7959C4.35817 33.2555 2.33522 35.5578 2.33522 38.3372V39.7026H0V46.3106H4.67238V65.392H0V72H72V65.392H67.3315V46.3106H72V39.7026H69.6648V38.3372C69.6648 35.5578 67.6418 33.2555 64.9943 32.7959V29.9661H72Z" fill="#3172FD"/>
</svg>
