<svg width="87" height="87" viewBox="0 0 87 87" fill="none" xmlns="http://www.w3.org/2000/svg">
<mask id="mask0" mask-type="alpha" maskUnits="userSpaceOnUse" x="15" y="2" width="72" height="62">
<path fill-rule="evenodd" clip-rule="evenodd" d="M15.9551 2.17554H86.5037V63.3318H15.9551V2.17554Z" fill="white"/>
</mask>
<g mask="url(#mask0)">
<path fill-rule="evenodd" clip-rule="evenodd" d="M81.2034 63.3317C81.0427 63.3317 80.8777 63.2947 80.726 63.2251C80.1817 62.9663 79.9519 62.329 80.2196 61.7983C82.9344 56.3347 84.3153 50.4622 84.3153 44.3461C84.3153 22.2699 65.8936 4.30872 43.2513 4.30872C33.8798 4.30872 25.0549 7.30587 17.7313 12.9783C17.2561 13.3437 16.5646 13.2654 16.1921 12.8064C15.8151 12.3453 15.8976 11.6733 16.3705 11.3079C24.0845 5.33315 33.3801 2.17505 43.2513 2.17505C67.1004 2.17505 86.5037 21.0932 86.5037 44.3461C86.5037 50.7885 85.0537 56.9742 82.1849 62.7292C81.9953 63.1099 81.6094 63.3317 81.2034 63.3317Z" fill="#3172FD"/>
</g>
<mask id="mask1" mask-type="alpha" maskUnits="userSpaceOnUse" x="0" y="19" width="73" height="68">
<path fill-rule="evenodd" clip-rule="evenodd" d="M0 19.2244H72.7918V86.5152H0V19.2244Z" fill="white"/>
</mask>
<g mask="url(#mask1)">
<path fill-rule="evenodd" clip-rule="evenodd" d="M43.2527 86.5152C19.4035 86.5152 -0.00195312 67.5993 -0.00195312 44.3442C-0.00195312 35.4158 2.82666 26.8811 8.17382 19.6666C8.53074 19.1881 9.21335 19.0815 9.70412 19.4274C10.1949 19.771 10.302 20.4387 9.95174 20.9172C4.87228 27.7641 2.19089 35.866 2.19089 44.3442C2.19089 66.4226 20.6104 84.3816 43.2527 84.3816C53.5343 84.3816 63.3764 80.658 70.9588 73.8937C71.4027 73.5 72.0965 73.5283 72.5047 73.9633C72.913 74.3983 72.8817 75.0726 72.4356 75.4706C64.4494 82.5937 54.083 86.5152 43.2527 86.5152Z" fill="#3172FD"/>
</g>
<path fill-rule="evenodd" clip-rule="evenodd" d="M14.1308 67.9366C13.8051 67.9366 13.4883 67.7996 13.2742 67.532C7.85119 60.8809 4.98242 52.8595 4.98242 44.3444C4.98242 23.7711 22.1527 7.03442 43.2535 7.03442C49.1003 7.03442 54.7107 8.28722 59.9352 10.758C60.4773 11.0168 60.707 11.6541 60.4438 12.1848C60.1783 12.7133 59.5225 12.933 58.9782 12.6807C54.0549 10.3491 48.7635 9.1681 43.2535 9.1681C23.3595 9.1681 7.17527 24.9499 7.17527 44.3444C7.17527 52.3745 9.87673 59.9326 14.9874 66.2075C15.3622 66.6686 15.2841 67.3406 14.8112 67.706C14.6082 67.8626 14.3673 67.9366 14.1308 67.9366Z" fill="#3172FD"/>
<path fill-rule="evenodd" clip-rule="evenodd" d="M43.2529 81.6555C35.1485 81.6555 27.4055 79.2151 20.8582 74.602C20.3697 74.2561 20.2559 73.5884 20.6128 73.1121C20.9675 72.6336 21.6479 72.527 22.1409 72.8728C28.3112 77.2228 35.6125 79.5218 43.2529 79.5218C63.1469 79.5218 79.3312 63.7422 79.3312 44.3455C79.3312 35.5368 75.9761 27.1065 69.8816 20.6119C69.4734 20.1769 69.5046 19.5027 69.9508 19.1025C70.3947 18.7088 71.0885 18.7349 71.4967 19.1699C77.9615 26.0603 81.5195 35.0017 81.5195 44.3455C81.5195 64.9189 64.3538 81.6555 43.2529 81.6555Z" fill="#3172FD"/>
<path fill-rule="evenodd" clip-rule="evenodd" d="M42.6585 54.9164V38.1298L38.4512 42.2318L37.1953 41.0051L43.5485 34.8064L49.9062 41.0051L48.6481 42.2318L44.4386 38.1298V54.9164H42.6585Z" fill="#3172FD"/>
<path fill-rule="evenodd" clip-rule="evenodd" d="M18.0288 44.1114C18.0288 44.1114 22.0464 40.0268 23.947 35.1026C23.947 24.73 31.7257 16.6433 42.362 16.6433H45.1572C51.4212 16.6433 56.9691 19.6166 60.4022 24.1949C63.5989 28.4536 64.3284 34.0194 62.8583 39.0959L62.2515 41.1817C61.5422 43.622 61.1852 46.1494 61.1852 48.6876V68.1604H41.7151V63.6777C41.7151 62.3162 40.5841 61.2134 39.1898 61.2134H28.7945C25.6312 61.2134 23.0681 58.7144 23.0681 55.628V49.6229C23.0681 48.9921 22.5416 48.481 21.7475 48.481H20.5094C19.9361 48.481 19.3605 48.3331 18.9077 47.9938C17.5625 46.9911 17.2703 45.3794 18.0288 44.1114ZM20.8842 50.2166H21.1005C21.2032 50.2166 21.2857 50.2971 21.2857 50.3972V56.3893C21.2857 60.0128 24.3017 62.9513 28.0182 62.9513H38.4403C39.2679 62.9513 39.9349 63.6038 39.9349 64.4063V69.896H62.9654V48.6876C62.9654 46.1494 63.3245 43.622 64.0317 41.1817L64.7946 38.5521C65.7315 35.3309 65.8498 31.877 64.7678 28.6972C62.0396 20.6845 54.2899 14.9055 45.1572 14.9055H42.362C31.0721 14.9055 22.4992 23.5055 22.1758 34.5088C21.279 38.3955 16.6345 42.9913 16.6345 42.9913C15.4634 44.9553 15.8092 47.4196 17.683 49.0878C18.5441 49.8599 19.7152 50.2166 20.8842 50.2166Z" fill="#3172FD"/>
<path fill-rule="evenodd" clip-rule="evenodd" d="M28.4102 34.2983C28.4102 26.1595 35.2006 19.5366 43.5504 19.5366C51.8957 19.5366 58.6884 26.1595 58.6884 34.2983C58.6884 40.434 54.7578 45.9433 48.8752 48.1031L48.2796 46.4653C53.4528 44.5513 56.9038 39.6989 56.9038 34.2983C56.9038 27.1165 50.9142 21.2744 43.5504 21.2744C36.1799 21.2744 30.1903 27.1165 30.1903 34.2983C30.1903 39.6989 33.6458 44.5513 38.8189 46.4653L38.2211 48.1031C32.343 45.9433 28.4102 40.4318 28.4102 34.2983Z" fill="#3172FD"/>
<path fill-rule="evenodd" clip-rule="evenodd" d="M40.9105 33.4253H39.0635V28.0008H36.9844V26.7502H37.2052C38.4031 26.7502 39.2352 26.2956 39.4806 25.0776H40.9105V33.4253Z" fill="#3172FD"/>
<path fill-rule="evenodd" clip-rule="evenodd" d="M44.8346 29.3962C44.8346 31.2907 45.2986 32.1976 46.2757 32.1976C47.2327 32.1976 47.6967 31.2559 47.6967 29.3136C47.6967 27.3213 47.255 26.4274 46.2668 26.4274C44.8346 26.4274 44.8346 28.4066 44.8346 29.3962ZM49.4099 29.3136C49.4099 31.9606 48.2321 33.5701 46.2868 33.5701C44.3081 33.5701 43.1191 31.9823 43.1191 29.3136C43.1191 27.3452 43.8441 25.031 46.2757 25.031C48.7362 25.031 49.4099 27.3452 49.4099 29.3136Z" fill="#3172FD"/>
</svg>
