<svg width="88" height="87" viewBox="0 0 88 87" fill="none" xmlns="http://www.w3.org/2000/svg">
<path fill-rule="evenodd" clip-rule="evenodd" d="M83.9563 12.8524C83.6063 13.2771 83.1499 13.2771 82.6649 13.2771H78.3345H62.2407H51.1016H48.7624C48.0993 13.2771 47.4342 12.7281 47.5406 11.9866C47.6634 11.1911 48.3265 11.0855 48.8832 10.6961C49.4296 10.3149 49.8123 9.71834 49.9494 9.05342C49.9965 8.90427 50.0169 8.73442 50.0006 8.5397C50.0006 8.39677 49.978 8.26627 49.9473 8.14613C49.6813 6.72927 48.5926 5.83856 47.1027 5.83856H44.5548H36.4363H34.0807C32.6666 5.83856 32.3003 3.94735 33.7308 3.5227C33.9764 3.45227 34.3243 3.50406 34.5699 3.50406H36.4363H65.994H67.7745C68.0876 3.50406 68.4724 3.47092 68.7671 3.59313C69.5366 3.94735 69.6737 4.88363 69.1354 5.48434C68.8039 5.85513 68.2247 5.92556 67.8789 6.29634C67.4061 6.77277 67.1114 7.33827 67.0378 8.02806C66.9007 9.68934 68.2247 10.9612 69.8169 10.9612H82.8389C83.7987 10.9612 84.7237 11.9348 83.9563 12.8524ZM85.6672 9.35377C84.8301 8.50449 83.6759 8.31184 82.5421 8.31184H69.6921C69.7105 8.31184 69.6409 8.23935 69.6409 8.25799C69.6409 8.18756 70.2528 7.92242 70.3224 7.8872C71.4582 7.21606 72.0333 5.9442 72.1029 4.6537C72.2073 2.58642 70.2835 0.836059 68.3312 0.836059H65.5213H35.984C34.7786 0.836059 33.2744 0.659988 32.1959 1.2607C29.9611 2.53463 29.5764 5.32485 31.1829 7.25127C31.9687 8.20413 33.2253 8.4527 34.3939 8.4527H47.2951C47.3135 8.4527 47.3646 8.52313 47.3646 8.50449C47.3667 8.5252 47.3708 8.54385 47.3728 8.56249C47.3033 8.65777 46.8326 8.82763 46.7548 8.87735C46.3025 9.12385 45.9157 9.52985 45.621 9.95449C44.9539 10.9094 44.7983 12.057 45.0603 13.188C45.4593 14.8327 47.1027 15.9451 48.7276 15.9451H51.9222H67.2854H81.3715C82.8389 15.9451 84.2673 16.0693 85.4932 15.044C87.2389 13.5774 87.2389 10.9446 85.6672 9.35377ZM40.4331 62.0468V61.7816V55.2069C40.4331 51.9196 44.9211 52.715 46.9963 52.715H49.8941C51.5559 52.715 52.3602 54.1298 52.3602 55.615V62.0468C52.3602 63.7598 49.7386 63.7598 49.7386 62.0468V56.0376V55.3685C49.7038 55.3664 49.6567 55.3664 49.5994 55.3664H46.3148H43.1243C43.0977 55.3664 43.0711 55.3664 43.0547 55.3643V56.1432V62.0281C43.0547 63.7246 40.4331 63.7246 40.4331 62.0468ZM62.1691 62.0281V61.763V55.1883C62.1691 51.903 66.6571 52.6984 68.7343 52.6984H71.6322C73.2899 52.6984 74.0941 54.1111 74.0941 55.5963V62.0281C74.0941 63.7246 71.4705 63.7246 71.4705 62.0468V56.0376V55.3685C71.4378 55.3664 71.3907 55.3664 71.3354 55.3664H68.0528H64.8582C64.8316 55.3664 64.8091 55.3664 64.7887 55.3643V56.1432V62.0281C64.7887 63.7412 62.1691 63.7412 62.1691 62.0281ZM66.0452 82.6844H33.5753H5.60763H2.69135V80.7393V80.4763H4.42065H7.16297H22.5937H44.0657H68.5235H76.8344H76.8487H80.778V80.5281V81.7999V82.6844H66.0452ZM2.70977 30.7164V30.3643V27.0583H3.02288H31.4264H37.2999C37.3101 27.0603 37.3183 27.0624 37.3286 27.0624V27.6963V29.8153V30.7164H33.782H18.1937H4.20986H2.77935H2.70977ZM8.9066 22.6586V20.9641V20.8046H12.9587H28.7209H30.6201H31.1113C31.2156 21.9874 31.1604 23.2178 31.1215 24.4255H11.698H8.9066V22.6586ZM14.9643 18.1532V7.52263C18.3308 8.18342 21.6891 8.84213 25.0556 9.50084V18.1532H14.9643ZM34.2199 53.9351V77.8248H15.5066H5.8V55.6668V33.3492H33.3133H34.2199V53.9351ZM47.158 34.7101C49.4746 33.7034 51.8179 32.6967 54.1406 31.6879C54.7403 31.4186 55.3501 31.1638 55.9518 30.8966V31.0002V53.4048V77.8248H37.9732H36.8394V54.0946V39.1823C40.2735 37.6888 43.7219 36.2057 47.158 34.7101ZM68.8919 34.7101C71.2086 33.7034 73.5518 32.6967 75.8746 31.6879C76.4742 31.4186 77.0882 31.1638 77.6878 30.8966V55.3312V77.8248H76.8344H76.2921H61.68H58.5734V54.0946V39.1823C62.0054 37.6888 65.4579 36.2057 68.8919 34.7101ZM82.2454 78.1956C82.051 78.0921 81.8545 78.0154 81.6478 77.9574C81.5966 77.9408 81.5393 77.9284 81.4882 77.916C81.4861 77.916 81.4841 77.9139 81.482 77.9139C81.3326 77.8766 81.173 77.8497 81.0052 77.8373C80.7719 77.8124 80.5406 77.8021 80.3074 77.8021V56.0376V30.7703C80.3074 29.5502 79.6095 28.5973 78.4409 28.2431C77.6551 27.9966 76.904 28.384 76.1877 28.703C74.3377 29.4984 72.504 30.2918 70.654 31.1058C66.6326 32.8541 62.5948 34.6024 58.5734 36.3528V31.3876C58.5734 29.9562 58.2419 28.6843 56.707 28.2079C55.9211 27.9593 55.17 28.3488 54.4538 28.6678C52.6037 29.4632 50.77 30.2566 48.92 31.0706C44.8986 32.8189 40.8608 34.5672 36.8394 36.3176V33.3492H37.5025C38.8287 33.3492 39.9256 32.2182 39.9256 30.8759V28.9681V26.9174C39.944 25.6393 39.1029 24.7735 37.9814 24.5042C37.8443 24.4545 37.6928 24.4255 37.5209 24.4255C37.4595 24.4193 37.4043 24.4213 37.347 24.4255H33.7144V22.6586C33.7144 21.4758 33.9416 20.0092 33.1373 19.0377C32.1263 17.7824 30.0143 18.1532 28.5777 18.1532H27.6731V8.41749C27.6731 8.33463 27.6649 8.25799 27.6547 8.18342C27.6301 7.6987 27.3416 7.25335 26.7133 7.12699C22.4709 6.29635 18.2469 5.46777 14.0024 4.63713C13.81 4.59777 13.6259 4.60192 13.4601 4.63713C12.8768 4.71377 12.3468 5.13634 12.3468 5.90692V18.1532H9.78046C9.27497 18.1532 8.61191 18.0662 8.10437 18.2236C6.20111 18.8243 6.23386 20.5208 6.23386 22.1656V24.4255H2.51739C-0.662886 24.4255 0.0738586 28.8252 0.0738586 30.8925C0.0738586 32.3425 1.27925 33.3492 2.64018 33.3492H3.18046V55.5073V77.7689C2.68111 77.7731 2.18995 77.8186 1.73153 77.9657C0.262138 78.4256 0.0922772 79.8569 0.0922772 81.1474V84.0101C0.0881841 84.4348 0.245766 84.7517 0.485207 84.9671C0.689859 85.1888 0.990696 85.3338 1.37953 85.3338H18.3001H51.869H76.2757H82.0714C82.3805 85.3338 82.6342 85.2447 82.8327 85.0976C83.1704 84.8926 83.4119 84.5321 83.4119 84.0101V80.7393C83.4119 80.4535 83.3874 80.1821 83.33 79.9253C83.2277 79.2251 82.9555 78.5851 82.2454 78.1956Z" fill="#3172FD"/>
</svg>
