<svg width="17" height="17" viewBox="0 0 17 17" fill="none" xmlns="http://www.w3.org/2000/svg">
<path fill-rule="evenodd" clip-rule="evenodd" d="M9.7318 3.84455C9.4738 3.85055 9.2208 3.87755 9.1258 4.14855C8.9838 4.55155 9.2828 4.64855 9.5858 4.69655C10.6048 4.85555 11.1408 5.44455 11.2418 6.43955C11.2698 6.70855 11.4438 6.92755 11.7108 6.89655C12.0788 6.85355 12.1118 6.53255 12.1008 6.22755C12.1188 5.10955 10.8308 3.81855 9.7318 3.84455ZM9.5028 1.94955C9.1178 1.90555 8.6078 1.72655 8.5178 2.25255C8.4218 2.80355 8.9908 2.74755 9.3568 2.82655C11.8358 3.36955 12.6998 4.25655 13.1078 6.66755C13.1678 7.02055 13.0478 7.56755 13.6588 7.47655C14.1108 7.40755 13.9478 6.93955 13.9848 6.66555C14.0038 4.35055 11.9818 2.24155 9.5028 1.94955ZM8.7178 0.863548C12.7338 1.46855 14.5858 3.34155 15.0968 7.30555C15.1448 7.67255 15.0038 8.22355 15.5378 8.23355C16.0948 8.24255 15.9608 7.69955 15.9638 7.33455C16.0128 3.59955 12.6918 0.138548 8.8348 0.0105476C8.5438 0.0515476 7.9408 -0.185452 7.9038 0.451548C7.8778 0.884548 8.3858 0.814548 8.7178 0.863548ZM14.8768 11.6605C15.5578 12.1985 16.4188 12.6475 16.0118 13.7755C15.5868 14.9475 14.1238 16.1285 12.8728 16.1155C12.6968 16.0695 12.3488 16.0165 12.0358 15.8845C6.5438 13.5655 2.5528 9.76655 0.285801 4.30955C-0.474199 2.48055 0.318801 0.935548 2.2348 0.304548C2.5798 0.191548 2.9158 0.182548 3.2528 0.304548C4.0708 0.599548 6.1408 3.39055 6.1868 4.22655C6.2218 4.86555 5.7778 5.21455 5.3358 5.50755C4.5038 6.06255 4.5008 6.76555 4.8558 7.54855C5.6598 9.32155 7.0328 10.5365 8.8118 11.3275C9.4568 11.6155 10.0738 11.5875 10.5148 10.9335C11.2978 9.76855 12.2608 9.82455 13.3128 10.5485C13.8388 10.9105 14.3758 11.2665 14.8768 11.6605Z" fill="#3172FD"/>
</svg>
