<svg width="25" height="25" viewBox="0 0 25 25" fill="none" xmlns="http://www.w3.org/2000/svg">
<path d="M24.9881 19.7298C25.0411 20.136 24.9174 20.4891 24.6176 20.7892L21.0976 24.2848C20.9388 24.4613 20.7316 24.6115 20.4757 24.735C20.2199 24.8586 19.9685 24.9381 19.7216 24.9733C19.7039 24.9733 19.6509 24.9779 19.5626 24.9867C19.4745 24.9955 19.3598 25 19.2187 25C18.8834 25 18.3408 24.9426 17.5909 24.8278C16.841 24.713 15.9236 24.4305 14.8386 23.9804C13.7533 23.5302 12.5227 22.8547 11.1465 21.9544C9.77036 21.0541 8.30588 19.8182 6.75322 18.2468C5.51815 17.0286 4.49481 15.8633 3.68319 14.7511C2.87158 13.6387 2.21876 12.6103 1.72473 11.6658C1.23066 10.7212 0.860137 9.86492 0.613123 9.09691C0.36611 8.32891 0.198493 7.66683 0.110274 7.11069C0.0220548 6.55454 -0.0132329 6.11757 0.00441096 5.79978C0.0220548 5.48198 0.0308767 5.30543 0.0308767 5.27012C0.0661644 5.02294 0.145562 4.77135 0.269069 4.51535C0.392575 4.25935 0.542548 4.0519 0.718986 3.893L4.23893 0.370762C4.48595 0.123587 4.76825 0 5.08584 0C5.31521 0 5.51811 0.0662075 5.69455 0.198623C5.87099 0.331038 6.02096 0.494349 6.14447 0.688558L8.9763 6.06461C9.1351 6.34709 9.17921 6.65606 9.10863 6.99151C9.03806 7.32696 8.88808 7.60945 8.65871 7.83897L7.36189 9.13664C7.3266 9.17195 7.29573 9.22933 7.26926 9.30878C7.24279 9.38822 7.22956 9.45443 7.22956 9.5074C7.30014 9.87816 7.45893 10.3019 7.70595 10.7786C7.91767 11.2023 8.24408 11.7187 8.68518 12.3278C9.12628 12.9369 9.75263 13.6387 10.5642 14.4332C11.3582 15.2454 12.064 15.8765 12.6815 16.3268C13.2989 16.7769 13.8152 17.108 14.2298 17.3199C14.6444 17.5317 14.962 17.6597 15.1825 17.7038L15.5133 17.77C15.5485 17.77 15.606 17.7567 15.6853 17.7303C15.7647 17.7038 15.8221 17.6729 15.8574 17.6376L17.3659 16.1015C17.6837 15.8191 18.054 15.6779 18.4775 15.6779C18.7775 15.6779 19.0156 15.7308 19.192 15.8368H19.2185L24.3263 18.8558C24.697 19.0855 24.9175 19.3767 24.9881 19.7298Z" fill="#3172FD"/>
</svg>
