<svg width="21" height="17" viewBox="0 0 21 17" fill="none" xmlns="http://www.w3.org/2000/svg">
<path fill-rule="evenodd" clip-rule="evenodd" d="M20.1283 0.803341C20.0873 0.391341 19.7883 0.072341 19.3973 0.010341C19.2013 -0.020659 19.0163 0.021341 18.8413 0.092341C17.5333 0.597341 16.2343 1.10234 14.9283 1.60634C10.7983 3.19234 6.67927 4.78834 2.56027 6.37434C1.96327 6.61134 1.36527 6.84834 0.768275 7.08434C0.542275 7.17734 0.336275 7.30134 0.171275 7.48734C-0.0757252 7.75434 -0.0557252 8.02234 0.232275 8.23834C0.387275 8.35134 0.562275 8.41334 0.748275 8.47534C1.24227 8.62934 1.73527 8.78234 2.23127 8.93834C3.24027 9.24734 4.25927 9.56734 5.26827 9.87534C5.44227 9.93734 5.53627 9.80334 5.67027 9.73134C6.83427 8.99034 7.99727 8.25834 9.16127 7.52834C10.8503 6.46734 12.5493 5.39634 14.2383 4.33534C14.7943 3.98534 15.3393 3.62434 15.9063 3.28334C16.0613 3.19234 16.2153 3.12034 16.3993 3.14134C16.4523 3.14134 16.5133 3.14134 16.5343 3.20134C16.5553 3.25434 16.5133 3.29534 16.4823 3.33634C16.4403 3.37734 16.3993 3.41834 16.3583 3.46034C15.8443 3.93434 15.3193 4.39734 14.7943 4.87034C14.1253 5.46834 13.4553 6.06534 12.7863 6.67334C12.1163 7.28134 11.4373 7.88834 10.7673 8.49534C9.84027 9.32034 8.92427 10.1633 7.99727 10.9883C7.93628 11.0493 7.87427 11.1113 7.93627 11.2143C7.97727 11.2663 8.02827 11.3073 8.08027 11.3483C8.75927 11.8423 9.43927 12.3573 10.1193 12.8513C10.3143 12.9953 10.4893 13.1813 10.7353 13.2533C10.7983 13.2943 10.8703 13.3353 10.9323 13.3873C12.3633 14.4373 13.7853 15.4983 15.2063 16.5483C15.4123 16.7013 15.6383 16.8163 15.8963 16.8663C16.3173 16.9493 16.6483 16.8063 16.8533 16.4253C16.9563 16.2293 17.0183 16.0233 17.0593 15.8073C17.1513 15.3643 17.2453 14.9213 17.3373 14.4793C17.7493 12.5113 18.1713 10.5553 18.5843 8.59834C19.0883 6.23034 19.5923 3.85134 20.0973 1.48334C20.1383 1.25634 20.1493 1.03034 20.1283 0.803341Z" fill="#3172FD"/>
</svg>
